This is BibTeX, Version 0.99d (TeX Live 2020)
Capacity: max_strings=200000, hash_size=200000, hash_prime=170003
The top-level auxiliary file: main.aux
The style file: plain.bst
Database file #1: ref.bib
You've used 51 entries,
            2118 wiz_defined-function locations,
            750 strings with 14939 characters,
and the built_in function-call counts, 23573 in all, are:
= -- 2296
> -- 1297
< -- 34
+ -- 511
- -- 458
* -- 1705
:= -- 3670
add.period$ -- 162
call.type$ -- 51
change.case$ -- 382
chr.to.int$ -- 0
cite$ -- 51
duplicate$ -- 907
empty$ -- 1726
format.name$ -- 458
if$ -- 5069
int.to.chr$ -- 0
int.to.str$ -- 51
missing$ -- 50
newline$ -- 257
num.names$ -- 102
pop$ -- 461
preamble$ -- 1
purify$ -- 331
quote$ -- 0
skip$ -- 702
stack$ -- 0
substring$ -- 1418
swap$ -- 337
text.length$ -- 34
text.prefix$ -- 0
top$ -- 0
type$ -- 204
warning$ -- 0
while$ -- 227
width$ -- 53
write$ -- 568
