\relax 
\providecommand\hyper@newdestlabel[2]{}
\providecommand\HyperFirstAtBeginDocument{\AtBeginDocument}
\HyperFirstAtBeginDocument{\ifx\hyper@anchor\@undefined
\global\let\oldcontentsline\contentsline
\gdef\contentsline#1#2#3#4{\oldcontentsline{#1}{#2}{#3}}
\global\let\oldnewlabel\newlabel
\gdef\newlabel#1#2{\newlabelxx{#1}#2}
\gdef\newlabelxx#1#2#3#4#5#6{\oldnewlabel{#1}{{#2}{#3}}}
\AtEndDocument{\ifx\hyper@anchor\@undefined
\let\contentsline\oldcontentsline
\let\newlabel\oldnewlabel
\fi}
\fi}
\global\let\hyper@last\relax 
\gdef\HyperFirstAtBeginDocument#1{#1}
\providecommand\HyField@AuxAddToFields[1]{}
\providecommand\HyField@AuxAddToCoFields[2]{}
\bbl@cs{beforestart}
\citation{matz2014effects}
\citation{predict_indoor}
\citation{ling2020ultragesture,wang2020push,li2022lasense,lian2021fall}
\citation{zhang2020endophasia,zhang2021soundlip,tan2017silenttalk}
\citation{zhang2020your,wang2018c}
\citation{mao2019rnn,li2020fm,lian2021echospot}
\citation{nandakumar2016fingerio,wang2016device}
\citation{mao2019rnn}
\citation{wang2016device,yun2017strata,sun2018vskin}
\babel@aux{english}{}
\@writefile{toc}{\contentsline {section}{Abstract}{1}{section*.1}\protected@file@percent }
\@writefile{toc}{\contentsline {section}{\numberline {1}Introduction}{1}{section.1}\protected@file@percent }
\citation{yun2015turning,aumi2013doplink,huang2014shake,wang2014ubiquitous,yun2015turning,wang2019millisonic,mao2016cat,zhang2017soundtrak}
\@writefile{toc}{\contentsline {section}{\numberline {2}RELATED WORK}{2}{section.2}\protected@file@percent }
\newlabel{sec:related}{{2}{2}{RELATED WORK}{section.2}{}}
\@writefile{toc}{\contentsline {subsection}{\numberline {2.1}Acoustic-based Tracking}{2}{subsection.2.1}\protected@file@percent }
\citation{nandakumar2016fingerio,nandakumar2017covertband}
\citation{mao2019rnn,li2020fm,lian2021echospot,zhou2017batmapper}
\citation{murano2018comparison}
\citation{peng2007beepbeep}
\citation{wang2016device}
\citation{wang2016device}
\citation{yun2017strata}
\citation{zhang2018vernier}
\citation{sun2018vskin}
\citation{adib2015multi,joshi2015wideo,zhu2015reusing,wei2015mtrack,leong2013multiple,zhu2015reusing,wei2015mtrack,gu2019mmsense,zhao2019mid}
\citation{wang2007rfid,maneesilp2012rfid,wang2013rf,wang2013dude,ni2003landmarc,jin2006indoor}
\citation{yang2020rf,chen2020tagray}
\citation{adib2014witrack,adib2015multi,joshi2015wideo,sun2015widraw,wang2018low,xie2019md,ayyalasomayajula2020deep}
\citation{mao2016cat}
\@writefile{toc}{\contentsline {subsection}{\numberline {2.2}RF-based Localization}{3}{subsection.2.2}\protected@file@percent }
\@writefile{toc}{\contentsline {section}{\numberline {3}Problem Statement}{3}{section.3}\protected@file@percent }
\@writefile{toc}{\contentsline {subsection}{\numberline {3.1}Our Goal and Challenges}{4}{subsection.3.1}\protected@file@percent }
\@writefile{toc}{\contentsline {subsection}{\numberline {3.2}Preliminary Knowledge}{4}{subsection.3.2}\protected@file@percent }
\newlabel{doppler_formula1}{{1}{4}{Preliminary Knowledge}{equation.3.1}{}}
\newlabel{doppler_formula2}{{2}{4}{Preliminary Knowledge}{equation.3.2}{}}
\newlabel{doppler_formula}{{3}{4}{Preliminary Knowledge}{equation.3.3}{}}
\@writefile{toc}{\contentsline {section}{\numberline {4}System Design}{4}{section.4}\protected@file@percent }
\@writefile{lof}{\contentsline {figure}{\numberline {1}{\ignorespaces The workflow of our continuous waves-based localization system via inaudible acoustic sensing.\relax }}{5}{figure.caption.3}\protected@file@percent }
\providecommand*\caption@xref[2]{\@setref\relax\@undefined{#1}}
\newlabel{systemdesign}{{1}{5}{The workflow of our continuous waves-based localization system via inaudible acoustic sensing.\relax }{figure.caption.3}{}}
\@writefile{toc}{\contentsline {subsection}{\numberline {4.1}Sensing}{5}{subsection.4.1}\protected@file@percent }
\@writefile{toc}{\contentsline {subsection}{\numberline {4.2}Signal Processing}{5}{subsection.4.2}\protected@file@percent }
\@writefile{toc}{\contentsline {subsubsection}{\numberline {4.2.1}Short Time Fourier Transform Processing}{5}{subsubsection.4.2.1}\protected@file@percent }
\@writefile{toc}{\contentsline {subsubsection}{\numberline {4.2.2}Interference Cancellation}{5}{subsubsection.4.2.2}\protected@file@percent }
\newlabel{mixx}{{5}{5}{Interference Cancellation}{equation.4.5}{}}
\@writefile{lof}{\contentsline {figure}{\numberline {2}{\ignorespaces I-Q decomposition.\relax }}{6}{figure.caption.4}\protected@file@percent }
\newlabel{IQdecomposition}{{2}{6}{I-Q decomposition.\relax }{figure.caption.4}{}}
\newlabel{slicesignla}{{4.2.3}{6}{Signal Slicing}{subsubsection.4.2.3}{}}
\@writefile{toc}{\contentsline {subsubsection}{\numberline {4.2.3}Signal Slicing }{6}{subsubsection.4.2.3}\protected@file@percent }
\newlabel{1114}{{6}{6}{Signal Slicing}{equation.4.6}{}}
\newlabel{1115}{{7}{6}{Signal Slicing}{equation.4.7}{}}
\@writefile{toc}{\contentsline {subsection}{\numberline {4.3}Signal Modeling}{6}{subsection.4.3}\protected@file@percent }
\newlabel{IandQ}{{8}{6}{Signal Modeling}{equation.4.8}{}}
\newlabel{combineIQ}{{9}{6}{Signal Modeling}{equation.4.9}{}}
\@writefile{lof}{\contentsline {figure}{\numberline {3}{\ignorespaces I-signal waveform.\relax }}{7}{figure.caption.5}\protected@file@percent }
\newlabel{Isignal}{{3}{7}{I-signal waveform.\relax }{figure.caption.5}{}}
\@writefile{lof}{\contentsline {figure}{\numberline {4}{\ignorespaces Q-signal waveform.\relax }}{7}{figure.caption.5}\protected@file@percent }
\newlabel{Qsignal}{{4}{7}{Q-signal waveform.\relax }{figure.caption.5}{}}
\@writefile{lof}{\contentsline {figure}{\numberline {5}{\ignorespaces Complex I-Q trace.\relax }}{7}{figure.caption.5}\protected@file@percent }
\newlabel{IQtrace}{{5}{7}{Complex I-Q trace.\relax }{figure.caption.5}{}}
\@writefile{lof}{\contentsline {figure}{\numberline {6}{\ignorespaces Additional distance caused by the microphone array structure.\relax }}{7}{figure.caption.6}\protected@file@percent }
\newlabel{array}{{6}{7}{Additional distance caused by the microphone array structure.\relax }{figure.caption.6}{}}
\newlabel{tof}{{10}{7}{Signal Modeling}{equation.4.10}{}}
\newlabel{combine}{{12}{7}{Signal Modeling}{equation.4.12}{}}
\newlabel{vector}{{13}{7}{Signal Modeling}{equation.4.13}{}}
\@writefile{toc}{\contentsline {subsection}{\numberline {4.4}Target Estimating}{7}{subsection.4.4}\protected@file@percent }
\newlabel{Multi Target Estimator}{{4.4}{7}{Target Estimating}{subsection.4.4}{}}
\@writefile{toc}{\contentsline {subsubsection}{\numberline {4.4.1}Motion State Estimator}{7}{subsubsection.4.4.1}\protected@file@percent }
\citation{thinsungnoena2015clustering}
\newlabel{optimize}{{14}{8}{Motion State Estimator}{equation.4.14}{}}
\@writefile{lof}{\contentsline {figure}{\numberline {7}{\ignorespaces Motion states of two body segments.\relax }}{8}{figure.caption.7}\protected@file@percent }
\newlabel{bodysegements}{{7}{8}{Motion states of two body segments.\relax }{figure.caption.7}{}}
\@writefile{toc}{\contentsline {subsubsection}{\numberline {4.4.2}Clustering Motion States}{8}{subsubsection.4.4.2}\protected@file@percent }
\@writefile{lof}{\contentsline {figure}{\numberline {8}{\ignorespaces Identifying the target points with the help of the previous estimation.\relax }}{9}{figure.caption.8}\protected@file@percent }
\newlabel{multipath3}{{8}{9}{Identifying the target points with the help of the previous estimation.\relax }{figure.caption.8}{}}
\newlabel{Trace}{{4.4.3}{9}{Trace Identification}{subsubsection.4.4.3}{}}
\@writefile{toc}{\contentsline {subsubsection}{\numberline {4.4.3}Trace Identification}{9}{subsubsection.4.4.3}\protected@file@percent }
\@writefile{toc}{\contentsline {section}{\numberline {5}EXPERIMENT}{9}{section.5}\protected@file@percent }
\@writefile{toc}{\contentsline {subsection}{\numberline {5.1}Experiment Setup}{9}{subsection.5.1}\protected@file@percent }
\@writefile{toc}{\contentsline {subsection}{\numberline {5.2}Performance on Locating a Single Moving Person}{9}{subsection.5.2}\protected@file@percent }
\@writefile{lof}{\contentsline {figure}{\numberline {9}{\ignorespaces Localization errors when locating a single person.\relax }}{10}{figure.caption.9}\protected@file@percent }
\newlabel{movingstatic}{{9}{10}{Localization errors when locating a single person.\relax }{figure.caption.9}{}}
\@writefile{lof}{\contentsline {figure}{\numberline {10}{\ignorespaces Localization errors at different ranges.\relax }}{10}{figure.caption.9}\protected@file@percent }
\newlabel{rangeimpact}{{10}{10}{Localization errors at different ranges.\relax }{figure.caption.9}{}}
\@writefile{lof}{\contentsline {figure}{\numberline {11}{\ignorespaces Impact of different speeds.\relax }}{10}{figure.caption.9}\protected@file@percent }
\newlabel{different_speed}{{11}{10}{Impact of different speeds.\relax }{figure.caption.9}{}}
\@writefile{lof}{\contentsline {figure}{\numberline {12}{\ignorespaces Impact of audible sounds.\relax }}{10}{figure.caption.10}\protected@file@percent }
\newlabel{diff_noise}{{12}{10}{Impact of audible sounds.\relax }{figure.caption.10}{}}
\@writefile{lof}{\contentsline {figure}{\numberline {13}{\ignorespaces Performance with different speakers.\relax }}{10}{figure.caption.10}\protected@file@percent }
\newlabel{Diff_speaekr}{{13}{10}{Performance with different speakers.\relax }{figure.caption.10}{}}
\@writefile{lof}{\contentsline {figure}{\numberline {14}{\ignorespaces Impact of different environment.\relax }}{10}{figure.caption.10}\protected@file@percent }
\newlabel{different_env}{{14}{10}{Impact of different environment.\relax }{figure.caption.10}{}}
\@writefile{toc}{\contentsline {subsection}{\numberline {5.3}Robustness for Single Person Localization}{10}{subsection.5.3}\protected@file@percent }
\@writefile{toc}{\contentsline {subsection}{\numberline {5.4}Tracking Multiple Moving Persons}{11}{subsection.5.4}\protected@file@percent }
\@writefile{toc}{\contentsline {subsection}{\numberline {5.5}Extension to Locate the Static Person}{11}{subsection.5.5}\protected@file@percent }
\citation{mao2019rnn}
\bibstyle{plain}
\bibdata{ref}
\@writefile{lof}{\contentsline {figure}{\numberline {15}{\ignorespaces Localization errors when locating two moving persons.\relax }}{12}{figure.caption.11}\protected@file@percent }
\newlabel{twomoving}{{15}{12}{Localization errors when locating two moving persons.\relax }{figure.caption.11}{}}
\@writefile{lof}{\contentsline {figure}{\numberline {16}{\ignorespaces Localization errors on different targets.\relax }}{12}{figure.caption.11}\protected@file@percent }
\newlabel{Difftarget}{{16}{12}{Localization errors on different targets.\relax }{figure.caption.11}{}}
\@writefile{lof}{\contentsline {figure}{\numberline {17}{\ignorespaces Localization errors when with different separation distance.\relax }}{12}{figure.caption.11}\protected@file@percent }
\newlabel{Diffdistance}{{17}{12}{Localization errors when with different separation distance.\relax }{figure.caption.11}{}}
\@writefile{lof}{\contentsline {figure}{\numberline {18}{\ignorespaces Localization errors when locating the ``static'' persons.\relax }}{12}{figure.caption.11}\protected@file@percent }
\newlabel{statics}{{18}{12}{Localization errors when locating the ``static'' persons.\relax }{figure.caption.11}{}}
\@writefile{toc}{\contentsline {section}{\numberline {6}Discussion}{12}{section.6}\protected@file@percent }
\@writefile{toc}{\contentsline {section}{\numberline {7}Conclusion}{12}{section.7}\protected@file@percent }
\bibcite{adib2015multi}{{1}{}{{}}{{}}}
\bibcite{adib2014witrack}{{2}{}{{}}{{}}}
\bibcite{aumi2013doplink}{{3}{}{{}}{{}}}
\bibcite{ayyalasomayajula2020deep}{{4}{}{{}}{{}}}
\bibcite{chen2020tagray}{{5}{}{{}}{{}}}
\bibcite{gu2019mmsense}{{6}{}{{}}{{}}}
\bibcite{huang2014shake}{{7}{}{{}}{{}}}
\bibcite{predict_indoor}{{8}{}{{}}{{}}}
\bibcite{jin2006indoor}{{9}{}{{}}{{}}}
\bibcite{joshi2015wideo}{{10}{}{{}}{{}}}
\bibcite{leong2013multiple}{{11}{}{{}}{{}}}
\bibcite{li2020fm}{{12}{}{{}}{{}}}
\bibcite{li2022lasense}{{13}{}{{}}{{}}}
\bibcite{lian2021echospot}{{14}{}{{}}{{}}}
\bibcite{lian2021fall}{{15}{}{{}}{{}}}
\bibcite{ling2020ultragesture}{{16}{}{{}}{{}}}
\bibcite{maneesilp2012rfid}{{17}{}{{}}{{}}}
\bibcite{mao2016cat}{{18}{}{{}}{{}}}
\bibcite{mao2019rnn}{{19}{}{{}}{{}}}
\bibcite{matz2014effects}{{20}{}{{}}{{}}}
\bibcite{murano2018comparison}{{21}{}{{}}{{}}}
\bibcite{nandakumar2016fingerio}{{22}{}{{}}{{}}}
\bibcite{nandakumar2017covertband}{{23}{}{{}}{{}}}
\bibcite{ni2003landmarc}{{24}{}{{}}{{}}}
\bibcite{peng2007beepbeep}{{25}{}{{}}{{}}}
\bibcite{sun2018vskin}{{26}{}{{}}{{}}}
\bibcite{sun2015widraw}{{27}{}{{}}{{}}}
\bibcite{tan2017silenttalk}{{28}{}{{}}{{}}}
\bibcite{thinsungnoena2015clustering}{{29}{}{{}}{{}}}
\bibcite{wang2019millisonic}{{30}{}{{}}{{}}}
\bibcite{wang2007rfid}{{31}{}{{}}{{}}}
\bibcite{wang2018low}{{32}{}{{}}{{}}}
\@writefile{toc}{\contentsline {section}{References}{13}{section*.13}\protected@file@percent }
\bibcite{wang2013rf}{{33}{}{{}}{{}}}
\bibcite{wang2013dude}{{34}{}{{}}{{}}}
\bibcite{wang2014ubiquitous}{{35}{}{{}}{{}}}
\bibcite{wang2018c}{{36}{}{{}}{{}}}
\bibcite{wang2016device}{{37}{}{{}}{{}}}
\bibcite{wang2020push}{{38}{}{{}}{{}}}
\bibcite{wei2015mtrack}{{39}{}{{}}{{}}}
\bibcite{xie2019md}{{40}{}{{}}{{}}}
\bibcite{yang2020rf}{{41}{}{{}}{{}}}
\bibcite{yun2015turning}{{42}{}{{}}{{}}}
\bibcite{yun2017strata}{{43}{}{{}}{{}}}
\bibcite{zhang2017soundtrak}{{44}{}{{}}{{}}}
\bibcite{zhang2020your}{{45}{}{{}}{{}}}
\bibcite{zhang2021soundlip}{{46}{}{{}}{{}}}
\bibcite{zhang2020endophasia}{{47}{}{{}}{{}}}
\bibcite{zhang2018vernier}{{48}{}{{}}{{}}}
\bibcite{zhao2019mid}{{49}{}{{}}{{}}}
\bibcite{zhou2017batmapper}{{50}{}{{}}{{}}}
\bibcite{zhu2015reusing}{{51}{}{{}}{{}}}
\newlabel{tocindent-1}{0pt}
\newlabel{tocindent0}{0pt}
\newlabel{tocindent1}{4.65pt}
\newlabel{tocindent2}{11.49998pt}
\newlabel{tocindent3}{20.22pt}
\providecommand\NAT@force@numbers{}\NAT@force@numbers
\newlabel{TotPages}{{14}{14}{}{page.14}{}}
