\relax 
\providecommand\hyper@newdestlabel[2]{}
\providecommand\HyperFirstAtBeginDocument{\AtBeginDocument}
\HyperFirstAtBeginDocument{\ifx\hyper@anchor\@undefined
\global\let\oldcontentsline\contentsline
\gdef\contentsline#1#2#3#4{\oldcontentsline{#1}{#2}{#3}}
\global\let\oldnewlabel\newlabel
\gdef\newlabel#1#2{\newlabelxx{#1}#2}
\gdef\newlabelxx#1#2#3#4#5#6{\oldnewlabel{#1}{{#2}{#3}}}
\AtEndDocument{\ifx\hyper@anchor\@undefined
\let\contentsline\oldcontentsline
\let\newlabel\oldnewlabel
\fi}
\fi}
\global\let\hyper@last\relax 
\gdef\HyperFirstAtBeginDocument#1{#1}
\providecommand\HyField@AuxAddToFields[1]{}
\providecommand\HyField@AuxAddToCoFields[2]{}
\bbl@cs{beforestart}
\citation{aumi2013doplink,huang2014shake,zhang2017soundtrak,yun2017strata}
\citation{adib2015multi,joshi2015wideo,zhu2015reusing,wei2015mtrack}
\citation{zhang2016litell,van2014camera,xu2020edge}
\citation{sun2018vskin,ling2020ultragesture,wang2020push}
\citation{zhang2020endophasia,zhang2021soundlip,tan2017silenttalk}
\citation{zhang2020your,wang2018c}
\citation{aumi2013doplink,huang2014shake}
\citation{zhang2017soundtrak,yun2017strata}
\citation{mao2019rnn}
\citation{wang2021mavl}
\babel@aux{english}{}
\@writefile{toc}{\contentsline {section}{Abstract}{1}{section*.1}\protected@file@percent }
\@writefile{toc}{\contentsline {section}{\numberline {1}Introduction}{1}{section.1}\protected@file@percent }
\citation{adib2015multi,joshi2015wideo}
\citation{zhang2016litell,van2014camera,xu2020edge}
\citation{mirshekari2018occupant,orr2000smart}
\citation{wei2017celli,xie2016lips}
\citation{yuan2014localization}
\citation{wang2013rf,wang2013dude,ni2003landmarc,jin2006indoor}
\citation{yang2020rf,chen2020tagray}
\citation{adib2014witrack,adib2015multi,joshi2015wideo,sun2015widraw,wang2018low,ayyalasomayajula2020deep}
\citation{leong2013multiple,zhu2015reusing,wei2015mtrack,gu2019mmsense,zhao2019mid}
\citation{gupta2012soundwave,sun2018vskin,ling2020ultragesture,wang2020push}
\citation{simon2013pin,shumailov2019hearing,xiao2020mobile}
\citation{liu2021blinklistener}
\citation{zhang2020endophasia,zhang2021soundlip,tan2017silenttalk}
\citation{chauhan2017breathprint,zhang2020your,wang2018c}
\citation{wan2021resptracker}
\citation{aumi2013doplink,huang2014shake,wang2014ubiquitous}
\citation{chen2017echotrack}
\citation{yun2015turning}
\citation{mao2016cat}
\citation{zhang2017soundtrak}
\citation{wang2019millisonic}
\citation{nandakumar2016fingerio,nandakumar2017covertband}
\citation{yun2017strata}
\citation{wang2016device}
\citation{mao2019rnn}
\@writefile{toc}{\contentsline {section}{\numberline {2}RELATED WORK}{3}{section.2}\protected@file@percent }
\newlabel{sec:related}{{2}{3}{RELATED WORK}{section.2}{}}
\@writefile{toc}{\contentsline {subsection}{\numberline {2.1}Sensor Based Localization}{3}{subsection.2.1}\protected@file@percent }
\@writefile{toc}{\contentsline {subsection}{\numberline {2.2}RF-based Localization}{3}{subsection.2.2}\protected@file@percent }
\@writefile{toc}{\contentsline {subsection}{\numberline {2.3}Acoustic-based Localization}{3}{subsection.2.3}\protected@file@percent }
\@writefile{toc}{\contentsline {section}{\numberline {3}Problem Statement}{4}{section.3}\protected@file@percent }
\newlabel{sec:PRELIMINARIES}{{3}{4}{Problem Statement}{section.3}{}}
\@writefile{lof}{\contentsline {figure}{\numberline {1}{\ignorespaces Example pf the FMCW signal. The blue line is the original FMCW signal, the red line is the reflected FMCW signal.\relax }}{4}{figure.caption.3}\protected@file@percent }
\providecommand*\caption@xref[2]{\@setref\relax\@undefined{#1}}
\newlabel{txrx}{{1}{4}{Example pf the FMCW signal. The blue line is the original FMCW signal, the red line is the reflected FMCW signal.\relax }{figure.caption.3}{}}
\@writefile{toc}{\contentsline {section}{\numberline {4}Signal Model}{4}{section.4}\protected@file@percent }
\newlabel{Signal_Model}{{4}{4}{Signal Model}{section.4}{}}
\@writefile{lof}{\contentsline {figure}{\numberline {2}{\ignorespaces I-Q decomposition.\relax }}{5}{figure.caption.4}\protected@file@percent }
\newlabel{IQ}{{2}{5}{I-Q decomposition.\relax }{figure.caption.4}{}}
\newlabel{temp2}{{5}{5}{Signal Model}{equation.4.5}{}}
\@writefile{lof}{\contentsline {figure}{\numberline {3}{\ignorespaces Structure of microphone array.\relax }}{5}{figure.caption.5}\protected@file@percent }
\newlabel{array}{{3}{5}{Structure of microphone array.\relax }{figure.caption.5}{}}
\newlabel{temp1}{{7}{5}{Signal Model}{equation.4.7}{}}
\citation{nandakumar2013dhwani}
\@writefile{toc}{\contentsline {section}{\numberline {5}Target Estimation}{6}{section.5}\protected@file@percent }
\newlabel{sec:Target}{{5}{6}{Target Estimation}{section.5}{}}
\@writefile{lof}{\contentsline {figure}{\numberline {4}{\ignorespaces Noisy spectrum.\relax }}{6}{figure.caption.6}\protected@file@percent }
\newlabel{Noisy_spectrum}{{4}{6}{Noisy spectrum.\relax }{figure.caption.6}{}}
\@writefile{lof}{\contentsline {figure}{\numberline {5}{\ignorespaces Spectrum after the interference cancellation.\relax }}{6}{figure.caption.6}\protected@file@percent }
\newlabel{clear_spectrum}{{5}{6}{Spectrum after the interference cancellation.\relax }{figure.caption.6}{}}
\@writefile{toc}{\contentsline {subsection}{\numberline {5.1}Single Target Estimation}{6}{subsection.5.1}\protected@file@percent }
\newlabel{single}{{5.1}{6}{Single Target Estimation}{subsection.5.1}{}}
\@writefile{toc}{\contentsline {subsection}{\numberline {5.2}Multi Target Estimation}{7}{subsection.5.2}\protected@file@percent }
\newlabel{multi-target}{{5.2}{7}{Multi Target Estimation}{subsection.5.2}{}}
\@writefile{toc}{\contentsline {subsection}{\numberline {5.3}Multi Targets Tracking}{7}{subsection.5.3}\protected@file@percent }
\newlabel{5.3}{{5.3}{7}{Multi Targets Tracking}{subsection.5.3}{}}
\citation{zhang2010direction}
\@writefile{lof}{\contentsline {figure}{\numberline {6}{\ignorespaces AOA estimation in noisy environment.\relax }}{8}{figure.caption.7}\protected@file@percent }
\newlabel{exampleDOA}{{6}{8}{AOA estimation in noisy environment.\relax }{figure.caption.7}{}}
\@writefile{toc}{\contentsline {section}{\numberline {6}Tracking in NLOS condition}{8}{section.6}\protected@file@percent }
\newlabel{nlos}{{6}{8}{Tracking in NLOS condition}{section.6}{}}
\@writefile{toc}{\contentsline {subsection}{\numberline {6.1}Multi Dimension Analyzation in NLOS Condition}{8}{subsection.6.1}\protected@file@percent }
\@writefile{toc}{\contentsline {subsection}{\numberline {6.2}Cluster the AOA Estimation}{8}{subsection.6.2}\protected@file@percent }
\citation{thinsungnoena2015clustering}
\citation{klemm2008improved}
\@writefile{lof}{\contentsline {figure}{\numberline {7}{\ignorespaces The spectrum of the room.\relax }}{9}{figure.caption.8}\protected@file@percent }
\newlabel{room}{{7}{9}{The spectrum of the room.\relax }{figure.caption.8}{}}
\@writefile{toc}{\contentsline {subsection}{\numberline {6.3}Retracing the Location}{9}{subsection.6.3}\protected@file@percent }
\@writefile{toc}{\contentsline {section}{\numberline {7}Sensing the Static Target}{10}{section.7}\protected@file@percent }
\newlabel{static}{{7}{10}{Sensing the Static Target}{section.7}{}}
\@writefile{toc}{\contentsline {section}{\numberline {8}EXPERIMENT}{10}{section.8}\protected@file@percent }
\@writefile{toc}{\contentsline {subsection}{\numberline {8.1}Experiment Setup}{10}{subsection.8.1}\protected@file@percent }
\@writefile{toc}{\contentsline {subsection}{\numberline {8.2}Localization In Different Condition}{10}{subsection.8.2}\protected@file@percent }
\@writefile{lof}{\contentsline {figure}{\numberline {8}{\ignorespaces CDF curve when tracking the targets in los condition.\relax }}{10}{figure.caption.9}\protected@file@percent }
\newlabel{moving_los_cdf}{{8}{10}{CDF curve when tracking the targets in los condition.\relax }{figure.caption.9}{}}
\@writefile{lof}{\contentsline {figure}{\numberline {9}{\ignorespaces CDF curve when tracking the targets in nlos condition.\relax }}{10}{figure.caption.9}\protected@file@percent }
\newlabel{moving_nlos_cdf}{{9}{10}{CDF curve when tracking the targets in nlos condition.\relax }{figure.caption.9}{}}
\@writefile{lof}{\contentsline {figure}{\numberline {10}{\ignorespaces CDF curve when localization the targets in los condition.\relax }}{11}{figure.caption.10}\protected@file@percent }
\newlabel{static_los_cdf}{{10}{11}{CDF curve when localization the targets in los condition.\relax }{figure.caption.10}{}}
\@writefile{lof}{\contentsline {figure}{\numberline {11}{\ignorespaces CDF curve when localization the targets in nlos condition.\relax }}{11}{figure.caption.10}\protected@file@percent }
\newlabel{static_nlos_cdf}{{11}{11}{CDF curve when localization the targets in nlos condition.\relax }{figure.caption.10}{}}
\@writefile{toc}{\contentsline {subsection}{\numberline {8.3}Localization By the breath}{11}{subsection.8.3}\protected@file@percent }
\@writefile{toc}{\contentsline {subsection}{\numberline {8.4}Impact of Different Factors}{11}{subsection.8.4}\protected@file@percent }
\@writefile{lof}{\contentsline {figure}{\numberline {12}{\ignorespaces Localization error on different range.\relax }}{11}{figure.caption.11}\protected@file@percent }
\newlabel{range_versus_error}{{12}{11}{Localization error on different range.\relax }{figure.caption.11}{}}
\@writefile{lof}{\contentsline {figure}{\numberline {13}{\ignorespaces Localization error in noisy environment.\relax }}{11}{figure.caption.12}\protected@file@percent }
\newlabel{noisy_env}{{13}{11}{Localization error in noisy environment.\relax }{figure.caption.12}{}}
\citation{oohashi2000inaudible}
\citation{fletcher2018effects}
\citation{leighton2016some}
\citation{wixey2020feasibility}
\bibstyle{plain}
\bibdata{ref}
\bibcite{adib2015multi}{{1}{}{{}}{{}}}
\bibcite{adib2014witrack}{{2}{}{{}}{{}}}
\bibcite{aumi2013doplink}{{3}{}{{}}{{}}}
\bibcite{ayyalasomayajula2020deep}{{4}{}{{}}{{}}}
\@writefile{lof}{\contentsline {figure}{\numberline {14}{\ignorespaces Localization error under different environment.\relax }}{12}{figure.caption.13}\protected@file@percent }
\newlabel{Different_env}{{14}{12}{Localization error under different environment.\relax }{figure.caption.13}{}}
\@writefile{toc}{\contentsline {section}{\numberline {9}DISCUSSION}{12}{section.9}\protected@file@percent }
\@writefile{toc}{\contentsline {section}{\numberline {10}CONCLUSION}{12}{section.10}\protected@file@percent }
\@writefile{toc}{\contentsline {section}{References}{12}{section*.15}\protected@file@percent }
\bibcite{chauhan2017breathprint}{{5}{}{{}}{{}}}
\bibcite{chen2017echotrack}{{6}{}{{}}{{}}}
\bibcite{chen2020tagray}{{7}{}{{}}{{}}}
\bibcite{fletcher2018effects}{{8}{}{{}}{{}}}
\bibcite{gu2019mmsense}{{9}{}{{}}{{}}}
\bibcite{gupta2012soundwave}{{10}{}{{}}{{}}}
\bibcite{huang2014shake}{{11}{}{{}}{{}}}
\bibcite{jin2006indoor}{{12}{}{{}}{{}}}
\bibcite{joshi2015wideo}{{13}{}{{}}{{}}}
\bibcite{klemm2008improved}{{14}{}{{}}{{}}}
\bibcite{leighton2016some}{{15}{}{{}}{{}}}
\bibcite{leong2013multiple}{{16}{}{{}}{{}}}
\bibcite{ling2020ultragesture}{{17}{}{{}}{{}}}
\bibcite{liu2021blinklistener}{{18}{}{{}}{{}}}
\bibcite{mao2016cat}{{19}{}{{}}{{}}}
\bibcite{mao2019rnn}{{20}{}{{}}{{}}}
\bibcite{mirshekari2018occupant}{{21}{}{{}}{{}}}
\bibcite{nandakumar2013dhwani}{{22}{}{{}}{{}}}
\bibcite{nandakumar2016fingerio}{{23}{}{{}}{{}}}
\bibcite{nandakumar2017covertband}{{24}{}{{}}{{}}}
\bibcite{ni2003landmarc}{{25}{}{{}}{{}}}
\bibcite{oohashi2000inaudible}{{26}{}{{}}{{}}}
\bibcite{orr2000smart}{{27}{}{{}}{{}}}
\bibcite{shumailov2019hearing}{{28}{}{{}}{{}}}
\bibcite{simon2013pin}{{29}{}{{}}{{}}}
\bibcite{sun2018vskin}{{30}{}{{}}{{}}}
\bibcite{sun2015widraw}{{31}{}{{}}{{}}}
\bibcite{tan2017silenttalk}{{32}{}{{}}{{}}}
\bibcite{thinsungnoena2015clustering}{{33}{}{{}}{{}}}
\bibcite{van2014camera}{{34}{}{{}}{{}}}
\bibcite{wan2021resptracker}{{35}{}{{}}{{}}}
\bibcite{wang2019millisonic}{{36}{}{{}}{{}}}
\bibcite{wang2018low}{{37}{}{{}}{{}}}
\bibcite{wang2013rf}{{38}{}{{}}{{}}}
\bibcite{wang2013dude}{{39}{}{{}}{{}}}
\bibcite{wang2014ubiquitous}{{40}{}{{}}{{}}}
\bibcite{wang2021mavl}{{41}{}{{}}{{}}}
\bibcite{wang2018c}{{42}{}{{}}{{}}}
\bibcite{wang2016device}{{43}{}{{}}{{}}}
\bibcite{wang2020push}{{44}{}{{}}{{}}}
\bibcite{wei2015mtrack}{{45}{}{{}}{{}}}
\bibcite{wei2017celli}{{46}{}{{}}{{}}}
\bibcite{wixey2020feasibility}{{47}{}{{}}{{}}}
\bibcite{xiao2020mobile}{{48}{}{{}}{{}}}
\bibcite{xie2016lips}{{49}{}{{}}{{}}}
\bibcite{xu2020edge}{{50}{}{{}}{{}}}
\bibcite{yang2020rf}{{51}{}{{}}{{}}}
\bibcite{yuan2014localization}{{52}{}{{}}{{}}}
\bibcite{yun2015turning}{{53}{}{{}}{{}}}
\bibcite{yun2017strata}{{54}{}{{}}{{}}}
\bibcite{zhang2017soundtrak}{{55}{}{{}}{{}}}
\bibcite{zhang2016litell}{{56}{}{{}}{{}}}
\bibcite{zhang2020your}{{57}{}{{}}{{}}}
\bibcite{zhang2021soundlip}{{58}{}{{}}{{}}}
\bibcite{zhang2010direction}{{59}{}{{}}{{}}}
\bibcite{zhang2020endophasia}{{60}{}{{}}{{}}}
\bibcite{zhao2019mid}{{61}{}{{}}{{}}}
\bibcite{zhu2015reusing}{{62}{}{{}}{{}}}
\newlabel{tocindent-1}{0pt}
\newlabel{tocindent0}{0pt}
\newlabel{tocindent1}{9.29999pt}
\newlabel{tocindent2}{11.49998pt}
\newlabel{tocindent3}{0pt}
\providecommand\NAT@force@numbers{}\NAT@force@numbers
\newlabel{TotPages}{{14}{14}{}{page.14}{}}
