This is BibTeX, Version 0.99d (TeX Live 2020)
Capacity: max_strings=200000, hash_size=200000, hash_prime=170003
The top-level auxiliary file: main.aux
The style file: plain.bst
Database file #1: ref.bib
You've used 62 entries,
            2118 wiz_defined-function locations,
            816 strings with 17577 characters,
and the built_in function-call counts, 28631 in all, are:
= -- 2797
> -- 1580
< -- 40
+ -- 623
- -- 558
* -- 2066
:= -- 4472
add.period$ -- 199
call.type$ -- 62
change.case$ -- 465
chr.to.int$ -- 0
cite$ -- 62
duplicate$ -- 1101
empty$ -- 2077
format.name$ -- 558
if$ -- 6149
int.to.chr$ -- 0
int.to.str$ -- 62
missing$ -- 62
newline$ -- 313
num.names$ -- 124
pop$ -- 549
preamble$ -- 1
purify$ -- 403
quote$ -- 0
skip$ -- 855
stack$ -- 0
substring$ -- 1728
swap$ -- 408
text.length$ -- 40
text.prefix$ -- 0
top$ -- 0
type$ -- 248
warning$ -- 0
while$ -- 272
width$ -- 64
write$ -- 693
