\relax 
\providecommand\hyper@newdestlabel[2]{}
\providecommand\HyperFirstAtBeginDocument{\AtBeginDocument}
\HyperFirstAtBeginDocument{\ifx\hyper@anchor\@undefined
\global\let\oldcontentsline\contentsline
\gdef\contentsline#1#2#3#4{\oldcontentsline{#1}{#2}{#3}}
\global\let\oldnewlabel\newlabel
\gdef\newlabel#1#2{\newlabelxx{#1}#2}
\gdef\newlabelxx#1#2#3#4#5#6{\oldnewlabel{#1}{{#2}{#3}}}
\AtEndDocument{\ifx\hyper@anchor\@undefined
\let\contentsline\oldcontentsline
\let\newlabel\oldnewlabel
\fi}
\fi}
\global\let\hyper@last\relax 
\gdef\HyperFirstAtBeginDocument#1{#1}
\providecommand\HyField@AuxAddToFields[1]{}
\providecommand\HyField@AuxAddToCoFields[2]{}
\citation{matz2014effects}
\citation{predict_indoor}
\citation{ling2020ultragesture,wang2020push,lian2021fall}
\citation{zhang2020endophasia,zhang2021soundlip,tan2017silenttalk}
\citation{zhang2020your,wang2018c}
\citation{mao2019rnn,li2020fm,lian2021echospot}
\@writefile{toc}{\contentsline {section}{Abstract}{1}{section*.1}}
\@writefile{toc}{\contentsline {section}{\numberline {1}Introduction}{1}{section.1}}
\citation{nandakumar2016fingerio,wang2016device}
\citation{mao2019rnn}
\citation{wang2016device,yun2017strata,sun2018vskin}
\citation{yun2015turning,aumi2013doplink,huang2014shake,wang2014ubiquitous,yun2015turning,wang2019millisonic,mao2016cat,zhang2017soundtrak}
\citation{nandakumar2016fingerio,nandakumar2017covertband}
\citation{li2020fm,lian2021echospot,zhou2017batmapper}
\citation{murano2018comparison}
\@writefile{toc}{\contentsline {section}{\numberline {2}RELATED WORK}{3}{section.2}}
\newlabel{sec:related}{{2}{3}{RELATED WORK}{section.2}{}}
\@writefile{toc}{\contentsline {subsection}{\numberline {2.1}Acoustic-based Tracking}{3}{subsection.2.1}}
\citation{mao2019rnn,mao2020deeprange}
\citation{mao2019rnn}
\citation{mao2020deeprange}
\citation{mao2019rnn,mao2020deeprange}
\citation{wang2016device}
\citation{wang2016device}
\citation{yun2017strata}
\citation{zhang2018vernier}
\citation{sun2018vskin}
\citation{adib2015multi,joshi2015wideo,zhu2015reusing,wei2015mtrack,leong2013multiple,zhu2015reusing,wei2015mtrack,gu2019mmsense,zhao2019mid}
\citation{wang2007rfid,maneesilp2012rfid,wang2013rf,wang2013dude,ni2003landmarc,jin2006indoor}
\citation{yang2020rf,chen2020tagray}
\citation{adib2014witrack,adib2015multi,joshi2015wideo,sun2015widraw,wang2018low,xie2019md,ayyalasomayajula2020deep}
\@writefile{toc}{\contentsline {subsection}{\numberline {2.2}RF-based Localization}{4}{subsection.2.2}}
\citation{mao2016cat}
\@writefile{toc}{\contentsline {section}{\numberline {3}Problem Statement}{5}{section.3}}
\@writefile{toc}{\contentsline {subsection}{\numberline {3.1}Our Goal and Challenges}{5}{subsection.3.1}}
\@writefile{toc}{\contentsline {subsection}{\numberline {3.2}Preliminary Knowledge}{6}{subsection.3.2}}
\newlabel{doppler_formula1}{{1}{6}{Preliminary Knowledge}{equation.3.1}{}}
\newlabel{doppler_formula2}{{2}{6}{Preliminary Knowledge}{equation.3.2}{}}
\newlabel{doppler_formula}{{3}{6}{Preliminary Knowledge}{equation.3.3}{}}
\@writefile{lof}{\contentsline {figure}{\numberline {1}{\ignorespaces The workflow of our continuous waves-based localization system via inaudible acoustic sensing.\relax }}{7}{figure.caption.2}}
\providecommand*\caption@xref[2]{\@setref\relax\@undefined{#1}}
\newlabel{systemdesign}{{1}{7}{The workflow of our continuous waves-based localization system via inaudible acoustic sensing.\relax }{figure.caption.2}{}}
\@writefile{toc}{\contentsline {section}{\numberline {4}System Design}{7}{section.4}}
\@writefile{toc}{\contentsline {subsection}{\numberline {4.1}Sensing}{7}{subsection.4.1}}
\@writefile{toc}{\contentsline {subsection}{\numberline {4.2}Signal Processing}{7}{subsection.4.2}}
\@writefile{toc}{\contentsline {subsubsection}{\numberline {4.2.1}Short Time Fourier Transform Processing}{7}{subsubsection.4.2.1}}
\@writefile{toc}{\contentsline {subsubsection}{\numberline {4.2.2}Interference Cancellation}{8}{subsubsection.4.2.2}}
\newlabel{mixx}{{5}{8}{Interference Cancellation}{equation.4.5}{}}
\newlabel{slicesignla}{{4.2.3}{8}{Signal Slicing}{subsubsection.4.2.3}{}}
\@writefile{toc}{\contentsline {subsubsection}{\numberline {4.2.3}Signal Slicing }{8}{subsubsection.4.2.3}}
\newlabel{1114}{{6}{8}{Signal Slicing}{equation.4.6}{}}
\newlabel{1115}{{7}{9}{Signal Slicing}{equation.4.7}{}}
\@writefile{toc}{\contentsline {subsection}{\numberline {4.3}Signal Modeling}{9}{subsection.4.3}}
\@writefile{lof}{\contentsline {figure}{\numberline {2}{\ignorespaces I-Q decomposition.\relax }}{9}{figure.caption.3}}
\newlabel{IQdecomposition}{{2}{9}{I-Q decomposition.\relax }{figure.caption.3}{}}
\newlabel{IandQ}{{8}{9}{Signal Modeling}{equation.4.8}{}}
\@writefile{lof}{\contentsline {figure}{\numberline {3}{\ignorespaces I-signal waveform.\relax }}{10}{figure.caption.4}}
\newlabel{Isignal}{{3}{10}{I-signal waveform.\relax }{figure.caption.4}{}}
\@writefile{lof}{\contentsline {figure}{\numberline {4}{\ignorespaces Q-signal waveform.\relax }}{10}{figure.caption.4}}
\newlabel{Qsignal}{{4}{10}{Q-signal waveform.\relax }{figure.caption.4}{}}
\newlabel{combineIQ}{{9}{10}{Signal Modeling}{equation.4.9}{}}
\@writefile{lof}{\contentsline {figure}{\numberline {5}{\ignorespaces Complex I-Q trace.\relax }}{10}{figure.caption.5}}
\newlabel{IQtrace}{{5}{10}{Complex I-Q trace.\relax }{figure.caption.5}{}}
\@writefile{lof}{\contentsline {figure}{\numberline {6}{\ignorespaces Additional distance caused by the microphone array structure.\relax }}{11}{figure.caption.6}}
\newlabel{array}{{6}{11}{Additional distance caused by the microphone array structure.\relax }{figure.caption.6}{}}
\newlabel{tof}{{10}{11}{Signal Modeling}{equation.4.10}{}}
\newlabel{combine}{{12}{11}{Signal Modeling}{equation.4.12}{}}
\newlabel{vector}{{13}{11}{Signal Modeling}{equation.4.13}{}}
\@writefile{toc}{\contentsline {subsection}{\numberline {4.4}Target Estimating}{11}{subsection.4.4}}
\newlabel{Multi Target Estimator}{{4.4}{11}{Target Estimating}{subsection.4.4}{}}
\citation{thinsungnoena2015clustering}
\@writefile{toc}{\contentsline {subsubsection}{\numberline {4.4.1}Motion State Estimator}{12}{subsubsection.4.4.1}}
\newlabel{optimize}{{14}{12}{Motion State Estimator}{equation.4.14}{}}
\@writefile{toc}{\contentsline {subsubsection}{\numberline {4.4.2}Clustering Motion States}{12}{subsubsection.4.4.2}}
\newlabel{Trace}{{4.4.3}{13}{Trace Identification}{subsubsection.4.4.3}{}}
\@writefile{lof}{\contentsline {figure}{\numberline {7}{\ignorespaces Identifying the target points with the help of the previous estimation.\relax }}{13}{figure.caption.7}}
\newlabel{multipath3}{{7}{13}{Identifying the target points with the help of the previous estimation.\relax }{figure.caption.7}{}}
\@writefile{toc}{\contentsline {subsubsection}{\numberline {4.4.3}Trace Identification}{13}{figure.caption.7}}
\@writefile{toc}{\contentsline {section}{\numberline {5}EXPERIMENT}{14}{section.5}}
\@writefile{toc}{\contentsline {subsection}{\numberline {5.1}Experiment Setup}{14}{subsection.5.1}}
\@writefile{toc}{\contentsline {subsection}{\numberline {5.2}Performance on Locating a Single Moving Person}{14}{subsection.5.2}}
\@writefile{lof}{\contentsline {figure}{\numberline {8}{\ignorespaces Localization errors when locating a single person.\relax }}{15}{figure.caption.8}}
\newlabel{movingstatic}{{8}{15}{Localization errors when locating a single person.\relax }{figure.caption.8}{}}
\@writefile{lof}{\contentsline {figure}{\numberline {9}{\ignorespaces Localization errors at different ranges.\relax }}{15}{figure.caption.8}}
\newlabel{rangeimpact}{{9}{15}{Localization errors at different ranges.\relax }{figure.caption.8}{}}
\@writefile{toc}{\contentsline {subsection}{\numberline {5.3}Robustness for Single Person Localization}{15}{subsection.5.3}}
\@writefile{lof}{\contentsline {figure}{\numberline {10}{\ignorespaces Impact of different speeds.\relax }}{15}{figure.caption.9}}
\newlabel{different_speed}{{10}{15}{Impact of different speeds.\relax }{figure.caption.9}{}}
\@writefile{lof}{\contentsline {figure}{\numberline {11}{\ignorespaces Impact of audible sounds.\relax }}{16}{figure.caption.10}}
\newlabel{diff_noise}{{11}{16}{Impact of audible sounds.\relax }{figure.caption.10}{}}
\@writefile{lof}{\contentsline {figure}{\numberline {12}{\ignorespaces Performance with different speakers.\relax }}{16}{figure.caption.11}}
\newlabel{Diff_speaekr}{{12}{16}{Performance with different speakers.\relax }{figure.caption.11}{}}
\@writefile{lof}{\contentsline {figure}{\numberline {13}{\ignorespaces Impact of different environment.\relax }}{17}{figure.caption.12}}
\newlabel{different_env}{{13}{17}{Impact of different environment.\relax }{figure.caption.12}{}}
\@writefile{toc}{\contentsline {subsection}{\numberline {5.4}Tracking Multiple Moving Persons}{17}{subsection.5.4}}
\@writefile{lof}{\contentsline {figure}{\numberline {14}{\ignorespaces Localization errors when locating two moving persons.\relax }}{17}{figure.caption.13}}
\newlabel{twomoving}{{14}{17}{Localization errors when locating two moving persons.\relax }{figure.caption.13}{}}
\@writefile{lof}{\contentsline {figure}{\numberline {15}{\ignorespaces Localization errors under different separation distances.\relax }}{18}{figure.caption.14}}
\newlabel{Diffdistance}{{15}{18}{Localization errors under different separation distances.\relax }{figure.caption.14}{}}
\@writefile{lof}{\contentsline {figure}{\numberline {16}{\ignorespaces Localization errors on different target counts.\relax }}{18}{figure.caption.15}}
\newlabel{Difftarget}{{16}{18}{Localization errors on different target counts.\relax }{figure.caption.15}{}}
\@writefile{toc}{\contentsline {subsection}{\numberline {5.5}Extension to Locate a Stationary Person}{19}{subsection.5.5}}
\@writefile{lof}{\contentsline {figure}{\numberline {17}{\ignorespaces Localization errors when locating the stationary persons.\relax }}{19}{figure.caption.16}}
\newlabel{statics}{{17}{19}{Localization errors when locating the stationary persons.\relax }{figure.caption.16}{}}
\@writefile{toc}{\contentsline {section}{\numberline {6}Discussion}{19}{section.6}}
\citation{mao2019rnn}
\bibstyle{ACM-Reference-Format}
\bibdata{ref}
\@writefile{toc}{\contentsline {section}{\numberline {7}Conclusion}{20}{section.7}}
\bibcite{adib2015multi}{{1}{2015}{{Adib et~al\unhbox \voidb@x \hbox {.}}}{{}}}
\bibcite{adib2014witrack}{{2}{2014}{{Adib et~al\unhbox \voidb@x \hbox {.}}}{{}}}
\bibcite{aumi2013doplink}{{3}{2013}{{Aumi et~al\unhbox \voidb@x \hbox {.}}}{{}}}
\bibcite{ayyalasomayajula2020deep}{{4}{2020}{{Ayyalasomayajula et~al\unhbox \voidb@x \hbox {.}}}{{}}}
\bibcite{chen2020tagray}{{5}{2020}{{Chen et~al\unhbox \voidb@x \hbox {.}}}{{}}}
\bibcite{gu2019mmsense}{{6}{2019}{{Gu et~al\unhbox \voidb@x \hbox {.}}}{{}}}
\bibcite{huang2014shake}{{7}{2014}{{Huang et~al\unhbox \voidb@x \hbox {.}}}{{}}}
\bibcite{predict_indoor}{{8}{2017}{{IndustryArc}}{{}}}
\bibcite{jin2006indoor}{{9}{2006}{{Jin et~al\unhbox \voidb@x \hbox {.}}}{{}}}
\bibcite{joshi2015wideo}{{10}{2015}{{Joshi et~al\unhbox \voidb@x \hbox {.}}}{{}}}
\bibcite{leong2013multiple}{{11}{2013}{{Leong et~al\unhbox \voidb@x \hbox {.}}}{{}}}
\bibcite{li2020fm}{{12}{2020}{{Li et~al\unhbox \voidb@x \hbox {.}}}{{}}}
\bibcite{lian2021echospot}{{13}{2021a}{{Lian et~al\unhbox \voidb@x \hbox {.}}}{{}}}
\bibcite{lian2021fall}{{14}{2021b}{{Lian et~al\unhbox \voidb@x \hbox {.}}}{{}}}
\bibcite{ling2020ultragesture}{{15}{2020}{{Ling et~al\unhbox \voidb@x \hbox {.}}}{{}}}
\bibcite{maneesilp2012rfid}{{16}{2012}{{Maneesilp et~al\unhbox \voidb@x \hbox {.}}}{{}}}
\bibcite{mao2016cat}{{17}{2016}{{Mao et~al\unhbox \voidb@x \hbox {.}}}{{}}}
\bibcite{mao2020deeprange}{{18}{2020}{{Mao et~al\unhbox \voidb@x \hbox {.}}}{{}}}
\bibcite{mao2019rnn}{{19}{2019}{{Mao et~al\unhbox \voidb@x \hbox {.}}}{{}}}
\bibcite{matz2014effects}{{20}{2014}{{Matz et~al\unhbox \voidb@x \hbox {.}}}{{}}}
\bibcite{murano2018comparison}{{21}{2018}{{Murano et~al\unhbox \voidb@x \hbox {.}}}{{}}}
\bibcite{nandakumar2016fingerio}{{22}{2016}{{Nandakumar et~al\unhbox \voidb@x \hbox {.}}}{{}}}
\bibcite{nandakumar2017covertband}{{23}{2017}{{Nandakumar et~al\unhbox \voidb@x \hbox {.}}}{{}}}
\@writefile{toc}{\contentsline {section}{Acknowledgments}{21}{section*.18}}
\@writefile{toc}{\contentsline {section}{References}{21}{section*.20}}
\bibcite{ni2003landmarc}{{24}{2003}{{Ni et~al\unhbox \voidb@x \hbox {.}}}{{}}}
\bibcite{sun2018vskin}{{25}{2018}{{Sun et~al\unhbox \voidb@x \hbox {.}}}{{}}}
\bibcite{sun2015widraw}{{26}{2015}{{Sun et~al\unhbox \voidb@x \hbox {.}}}{{}}}
\bibcite{tan2017silenttalk}{{27}{2017}{{Tan et~al\unhbox \voidb@x \hbox {.}}}{{}}}
\bibcite{thinsungnoena2015clustering}{{28}{2015}{{Thinsungnoena et~al\unhbox \voidb@x \hbox {.}}}{{}}}
\bibcite{wang2019millisonic}{{29}{2019}{{Wang and Gollakota}}{{}}}
\bibcite{wang2007rfid}{{30}{2007}{{Wang et~al\unhbox \voidb@x \hbox {.}}}{{}}}
\bibcite{wang2013rf}{{31}{2013}{{Wang et~al\unhbox \voidb@x \hbox {.}}}{{}}}
\bibcite{wang2013dude}{{32}{2013}{{Wang and Katabi}}{{}}}
\bibcite{wang2018low}{{33}{2018a}{{Wang et~al\unhbox \voidb@x \hbox {.}}}{{}}}
\bibcite{wang2014ubiquitous}{{34}{2014}{{Wang et~al\unhbox \voidb@x \hbox {.}}}{{}}}
\bibcite{wang2018c}{{35}{2018b}{{Wang et~al\unhbox \voidb@x \hbox {.}}}{{}}}
\bibcite{wang2016device}{{36}{2016}{{Wang et~al\unhbox \voidb@x \hbox {.}}}{{}}}
\bibcite{wang2020push}{{37}{2020}{{Wang et~al\unhbox \voidb@x \hbox {.}}}{{}}}
\bibcite{wei2015mtrack}{{38}{2015}{{Wei and Zhang}}{{}}}
\bibcite{xie2019md}{{39}{2019}{{Xie et~al\unhbox \voidb@x \hbox {.}}}{{}}}
\bibcite{yang2020rf}{{40}{2020}{{Yang et~al\unhbox \voidb@x \hbox {.}}}{{}}}
\bibcite{yun2015turning}{{41}{2015}{{Yun et~al\unhbox \voidb@x \hbox {.}}}{{}}}
\bibcite{yun2017strata}{{42}{2017}{{Yun et~al\unhbox \voidb@x \hbox {.}}}{{}}}
\bibcite{zhang2017soundtrak}{{43}{2017}{{Zhang et~al\unhbox \voidb@x \hbox {.}}}{{}}}
\bibcite{zhang2020your}{{44}{2020b}{{Zhang et~al\unhbox \voidb@x \hbox {.}}}{{}}}
\bibcite{zhang2021soundlip}{{45}{2021}{{Zhang et~al\unhbox \voidb@x \hbox {.}}}{{}}}
\bibcite{zhang2020endophasia}{{46}{2020a}{{Zhang et~al\unhbox \voidb@x \hbox {.}}}{{}}}
\bibcite{zhang2018vernier}{{47}{2018}{{Zhang et~al\unhbox \voidb@x \hbox {.}}}{{}}}
\bibcite{zhao2019mid}{{48}{2019}{{Zhao et~al\unhbox \voidb@x \hbox {.}}}{{}}}
\bibcite{zhou2017batmapper}{{49}{2017}{{Zhou et~al\unhbox \voidb@x \hbox {.}}}{{}}}
\bibcite{zhu2015reusing}{{50}{2015}{{Zhu et~al\unhbox \voidb@x \hbox {.}}}{{}}}
\newlabel{tocindent-1}{0pt}
\newlabel{tocindent0}{0pt}
\newlabel{tocindent1}{4.65pt}
\newlabel{tocindent2}{11.49998pt}
\newlabel{tocindent3}{20.22pt}
\newlabel{TotPages}{{24}{24}{}{page.24}{}}
