\relax 
\providecommand\hyper@newdestlabel[2]{}
\providecommand\HyperFirstAtBeginDocument{\AtBeginDocument}
\HyperFirstAtBeginDocument{\ifx\hyper@anchor\@undefined
\global\let\oldcontentsline\contentsline
\gdef\contentsline#1#2#3#4{\oldcontentsline{#1}{#2}{#3}}
\global\let\oldnewlabel\newlabel
\gdef\newlabel#1#2{\newlabelxx{#1}#2}
\gdef\newlabelxx#1#2#3#4#5#6{\oldnewlabel{#1}{{#2}{#3}}}
\AtEndDocument{\ifx\hyper@anchor\@undefined
\let\contentsline\oldcontentsline
\let\newlabel\oldnewlabel
\fi}
\fi}
\global\let\hyper@last\relax 
\gdef\HyperFirstAtBeginDocument#1{#1}
\providecommand\HyField@AuxAddToFields[1]{}
\providecommand\HyField@AuxAddToCoFields[2]{}
\bbl@cs{beforestart}
\babel@aux{english}{}
\citation{matz2014effects}
\citation{predict_indoor}
\citation{sun2018vskin,ling2020ultragesture,wang2020push}
\citation{zhang2020endophasia,zhang2021soundlip,tan2017silenttalk}
\citation{zhang2020your,wang2018c}
\@writefile{toc}{\contentsline {section}{\numberline {1}Introduction}{2}{section.1}\protected@file@percent }
\@writefile{lof}{\contentsline {figure}{\numberline {1}{\ignorespaces Working scenario for tracking multiple person in smart home.}}{2}{figure.1}\protected@file@percent }
\newlabel{smarthome}{{1}{2}{Working scenario for tracking multiple person in smart home}{figure.1}{}}
\citation{nandakumar2016fingerio,wang2016device}
\citation{mao2019rnn}
\citation{wang2016device}
\citation{zhang2016litell,van2014camera,xu2020edge}
\citation{yuan2014localization}
\citation{mirshekari2018occupant,orr2000smart}
\citation{wei2017celli,xie2016lips}
\citation{adib2015multi,joshi2015wideo,zhu2015reusing,wei2015mtrack,leong2013multiple,zhu2015reusing,wei2015mtrack,gu2019mmsense,zhao2019mid}
\citation{wang2013rf,wang2013dude,ni2003landmarc,jin2006indoor}
\citation{yang2020rf,chen2020tagray}
\citation{adib2014witrack,adib2015multi,joshi2015wideo,sun2015widraw,wang2018low,ayyalasomayajula2020deep}
\citation{aumi2013doplink,huang2014shake,wang2014ubiquitous,yun2015turning,wang2019millisonic,mao2016cat,zhang2017soundtrak}
\citation{aumi2013doplink,huang2014shake,zhang2017soundtrak,yun2017strata}
\citation{lu2018lippass,zhang2017hearing}
\citation{nandakumar2016fingerio,nandakumar2017covertband}
\citation{mao2019rnn}
\citation{wang2016device}
\citation{yun2017strata}
\citation{sun2018vskin}
\@writefile{toc}{\contentsline {section}{\numberline {2}RELATED WORK}{4}{section.2}\protected@file@percent }
\newlabel{sec:related}{{2}{4}{RELATED WORK}{section.2}{}}
\@writefile{toc}{\contentsline {subsection}{\numberline {2.1}Sensor Based Localization}{4}{subsection.2.1}\protected@file@percent }
\@writefile{toc}{\contentsline {subsection}{\numberline {2.2}RF-based Localization}{4}{subsection.2.2}\protected@file@percent }
\@writefile{toc}{\contentsline {subsection}{\numberline {2.3}Acoustic-based Localization}{4}{subsection.2.3}\protected@file@percent }
\@writefile{toc}{\contentsline {section}{\numberline {3}Problem Statement}{4}{section.3}\protected@file@percent }
\newlabel{sec:PRELIMINARIES}{{3}{4}{Problem Statement}{section.3}{}}
\@writefile{toc}{\contentsline {subsection}{\numberline {3.1}Parameters of Human Motion}{4}{subsection.3.1}\protected@file@percent }
\@writefile{lof}{\contentsline {figure}{\numberline {2}{\ignorespaces The workflow of the system.}}{5}{figure.2}\protected@file@percent }
\newlabel{systemdesign}{{2}{5}{The workflow of the system}{figure.2}{}}
\@writefile{toc}{\contentsline {subsection}{\numberline {3.2}Phase Based Sensing}{5}{subsection.3.2}\protected@file@percent }
\@writefile{toc}{\contentsline {subsection}{\numberline {3.3}Doppler Effect}{5}{subsection.3.3}\protected@file@percent }
\newlabel{doppler_formula}{{3}{5}{Doppler Effect}{equation.3.3}{}}
\@writefile{toc}{\contentsline {section}{\numberline {4}SYSTEM OVERVIEW}{5}{section.4}\protected@file@percent }
\@writefile{toc}{\contentsline {section}{\numberline {5}System design}{6}{section.5}\protected@file@percent }
\@writefile{toc}{\contentsline {subsection}{\numberline {5.1}Sensing}{6}{subsection.5.1}\protected@file@percent }
\@writefile{toc}{\contentsline {subsection}{\numberline {5.2}Signal Processing}{6}{subsection.5.2}\protected@file@percent }
\@writefile{toc}{\contentsline {subsubsection}{\numberline {5.2.1}Short Time Fourier Transform}{6}{subsubsection.5.2.1}\protected@file@percent }
\@writefile{lof}{\contentsline {figure}{\numberline {3}{\ignorespaces Denoised spectrogram.}}{7}{figure.3}\protected@file@percent }
\newlabel{Denoised}{{3}{7}{Denoised spectrogram}{figure.3}{}}
\@writefile{toc}{\contentsline {subsubsection}{\numberline {5.2.2}Interference Cancellation}{7}{subsubsection.5.2.2}\protected@file@percent }
\newlabel{mixx}{{5}{7}{Interference Cancellation}{equation.5.5}{}}
\@writefile{toc}{\contentsline {subsubsection}{\numberline {5.2.3}Slicing the Signal}{7}{subsubsection.5.2.3}\protected@file@percent }
\newlabel{1114}{{6}{7}{Slicing the Signal}{equation.5.6}{}}
\@writefile{lof}{\contentsline {figure}{\numberline {4}{\ignorespaces I-Q decomposition.}}{8}{figure.4}\protected@file@percent }
\newlabel{IQ}{{4}{8}{I-Q decomposition}{figure.4}{}}
\newlabel{1114}{{7}{8}{Slicing the Signal}{equation.5.7}{}}
\@writefile{toc}{\contentsline {subsection}{\numberline {5.3}Signal Model}{8}{subsection.5.3}\protected@file@percent }
\@writefile{toc}{\contentsline {subsubsection}{\numberline {5.3.1}Signal Model}{8}{subsubsection.5.3.1}\protected@file@percent }
\newlabel{combin1eI}{{8}{8}{Signal Model}{equation.5.8}{}}
\newlabel{combin1e}{{10}{8}{Signal Model}{equation.5.10}{}}
\newlabel{combine11}{{11}{8}{Signal Model}{equation.5.11}{}}
\@writefile{lof}{\contentsline {figure}{\numberline {5}{\ignorespaces Additional distance caused by the microphone array structure.}}{9}{figure.5}\protected@file@percent }
\newlabel{array}{{5}{9}{Additional distance caused by the microphone array structure}{figure.5}{}}
\newlabel{tof}{{12}{9}{Signal Model}{equation.5.12}{}}
\newlabel{combine}{{15}{9}{Signal Model}{equation.5.15}{}}
\@writefile{toc}{\contentsline {subsection}{\numberline {5.4}Target Estimator}{9}{subsection.5.4}\protected@file@percent }
\newlabel{Multi Target Estimator}{{5.4}{9}{Target Estimator}{subsection.5.4}{}}
\@writefile{toc}{\contentsline {subsubsection}{\numberline {5.4.1}Motion State Estimator}{9}{subsubsection.5.4.1}\protected@file@percent }
\citation{thinsungnoena2015clustering}
\@writefile{lof}{\contentsline {figure}{\numberline {6}{\ignorespaces Cluster points at time t.}}{10}{figure.6}\protected@file@percent }
\newlabel{multipath1}{{6}{10}{Cluster points at time t}{figure.6}{}}
\@writefile{lof}{\contentsline {figure}{\numberline {7}{\ignorespaces Cluster points at time t+1.}}{10}{figure.7}\protected@file@percent }
\newlabel{multipath2}{{7}{10}{Cluster points at time t+1}{figure.7}{}}
\@writefile{toc}{\contentsline {subsubsection}{\numberline {5.4.2}Clustering the Estimation}{10}{subsubsection.5.4.2}\protected@file@percent }
\@writefile{toc}{\contentsline {subsubsection}{\numberline {5.4.3}Trace Estimation}{10}{subsubsection.5.4.3}\protected@file@percent }
\@writefile{lof}{\contentsline {figure}{\numberline {8}{\ignorespaces Evaluation scenario on multi person localization.}}{11}{figure.8}\protected@file@percent }
\newlabel{Moving_trajectory}{{8}{11}{Evaluation scenario on multi person localization}{figure.8}{}}
\@writefile{toc}{\contentsline {section}{\numberline {6}EXPERIMENT}{11}{section.6}\protected@file@percent }
\@writefile{toc}{\contentsline {subsection}{\numberline {6.1}Experiment Setup}{11}{subsection.6.1}\protected@file@percent }
\@writefile{toc}{\contentsline {subsection}{\numberline {6.2}Performance on Single Target}{11}{subsection.6.2}\protected@file@percent }
\@writefile{toc}{\contentsline {subsection}{\numberline {6.3}Performance on Multiple Target}{11}{subsection.6.3}\protected@file@percent }
\@writefile{lof}{\contentsline {figure}{\numberline {9}{\ignorespaces localization error when locating a single person.}}{12}{figure.9}\protected@file@percent }
\newlabel{movingstatic}{{9}{12}{localization error when locating a single person}{figure.9}{}}
\@writefile{lof}{\contentsline {figure}{\numberline {10}{\ignorespaces localization error when locating two moving person.}}{12}{figure.10}\protected@file@percent }
\newlabel{twomoving}{{10}{12}{localization error when locating two moving person}{figure.10}{}}
\@writefile{lof}{\contentsline {figure}{\numberline {11}{\ignorespaces localization error when locating two static person.}}{12}{figure.11}\protected@file@percent }
\newlabel{twostatic}{{11}{12}{localization error when locating two static person}{figure.11}{}}
\@writefile{lof}{\contentsline {figure}{\numberline {12}{\ignorespaces Localization error on different range.}}{12}{figure.12}\protected@file@percent }
\newlabel{rangeimpact}{{12}{12}{Localization error on different range}{figure.12}{}}
\@writefile{lof}{\contentsline {figure}{\numberline {13}{\ignorespaces Localization error on different targets.}}{12}{figure.13}\protected@file@percent }
\newlabel{Difftarget}{{13}{12}{Localization error on different targets}{figure.13}{}}
\@writefile{lof}{\contentsline {figure}{\numberline {14}{\ignorespaces Localization error when shifting the distance between targets.}}{12}{figure.14}\protected@file@percent }
\newlabel{Diffdistance}{{14}{12}{Localization error when shifting the distance between targets}{figure.14}{}}
\@writefile{toc}{\contentsline {subsection}{\numberline {6.4}Impact of Range}{12}{subsection.6.4}\protected@file@percent }
\@writefile{toc}{\contentsline {subsection}{\numberline {6.5}Impact of Number of Targets}{12}{subsection.6.5}\protected@file@percent }
\@writefile{toc}{\contentsline {subsection}{\numberline {6.6}Impact of distance between the targets}{12}{subsection.6.6}\protected@file@percent }
\citation{oohashi2000inaudible}
\citation{fletcher2018effects}
\citation{leighton2016some}
\citation{wixey2020feasibility}
\bibstyle{plain}
\bibdata{ref}
\bibcite{adib2015multi}{1}
\@writefile{toc}{\contentsline {subsection}{\numberline {6.7}Impact of Different Environment}{13}{subsection.6.7}\protected@file@percent }
\@writefile{toc}{\contentsline {subsection}{\numberline {6.8}Impact of Noise}{13}{subsection.6.8}\protected@file@percent }
\@writefile{toc}{\contentsline {subsection}{\numberline {6.9}Impact of Device}{13}{subsection.6.9}\protected@file@percent }
\@writefile{toc}{\contentsline {section}{\numberline {7}DISCUSSION}{13}{section.7}\protected@file@percent }
\@writefile{toc}{\contentsline {section}{\numberline {8}CONCLUSION}{13}{section.8}\protected@file@percent }
\bibcite{adib2014witrack}{2}
\bibcite{aumi2013doplink}{3}
\bibcite{ayyalasomayajula2020deep}{4}
\bibcite{chen2020tagray}{5}
\bibcite{fletcher2018effects}{6}
\bibcite{gu2019mmsense}{7}
\bibcite{huang2014shake}{8}
\bibcite{predict_indoor}{9}
\bibcite{jin2006indoor}{10}
\bibcite{joshi2015wideo}{11}
\bibcite{leighton2016some}{12}
\bibcite{leong2013multiple}{13}
\bibcite{ling2020ultragesture}{14}
\bibcite{lu2018lippass}{15}
\bibcite{mao2016cat}{16}
\@writefile{lof}{\contentsline {figure}{\numberline {15}{\ignorespaces Impact of different environment.}}{14}{figure.15}\protected@file@percent }
\newlabel{different_env}{{15}{14}{Impact of different environment}{figure.15}{}}
\@writefile{lof}{\contentsline {figure}{\numberline {16}{\ignorespaces Impact of different type of noise.}}{14}{figure.16}\protected@file@percent }
\newlabel{diff_noise}{{16}{14}{Impact of different type of noise}{figure.16}{}}
\@writefile{lof}{\contentsline {figure}{\numberline {17}{\ignorespaces Performance on different speaker.}}{14}{figure.17}\protected@file@percent }
\newlabel{Diff_speaekr}{{17}{14}{Performance on different speaker}{figure.17}{}}
\bibcite{mao2019rnn}{17}
\bibcite{matz2014effects}{18}
\bibcite{mirshekari2018occupant}{19}
\bibcite{nandakumar2016fingerio}{20}
\bibcite{nandakumar2017covertband}{21}
\bibcite{ni2003landmarc}{22}
\bibcite{oohashi2000inaudible}{23}
\bibcite{orr2000smart}{24}
\bibcite{sun2018vskin}{25}
\bibcite{sun2015widraw}{26}
\bibcite{tan2017silenttalk}{27}
\bibcite{thinsungnoena2015clustering}{28}
\bibcite{van2014camera}{29}
\bibcite{wang2019millisonic}{30}
\bibcite{wang2018low}{31}
\bibcite{wang2013rf}{32}
\bibcite{wang2013dude}{33}
\bibcite{wang2014ubiquitous}{34}
\bibcite{wang2018c}{35}
\bibcite{wang2016device}{36}
\bibcite{wang2020push}{37}
\bibcite{wei2015mtrack}{38}
\bibcite{wei2017celli}{39}
\bibcite{wixey2020feasibility}{40}
\bibcite{xie2016lips}{41}
\bibcite{xu2020edge}{42}
\bibcite{yang2020rf}{43}
\bibcite{yuan2014localization}{44}
\bibcite{yun2015turning}{45}
\bibcite{yun2017strata}{46}
\bibcite{zhang2017soundtrak}{47}
\bibcite{zhang2016litell}{48}
\bibcite{zhang2020your}{49}
\bibcite{zhang2017hearing}{50}
\bibcite{zhang2021soundlip}{51}
\bibcite{zhang2020endophasia}{52}
\bibcite{zhao2019mid}{53}
\bibcite{zhu2015reusing}{54}
