This is BibTeX, Version 0.99d (TeX Live 2021/W32TeX)
Capacity: max_strings=200000, hash_size=200000, hash_prime=170003
The top-level auxiliary file: main.aux
The style file: plain.bst
Database file #1: ref.bib
I was expecting a `,' or a `}'---line 89 of file ref.bib
 : 
 : @article{van2008feature,
(Error may have been on previous line)
I'm skipping whatever remains of this entry
You've used 54 entries,
            2118 wiz_defined-function locations,
            776 strings with 16139 characters,
and the built_in function-call counts, 25180 in all, are:
= -- 2450
> -- 1405
< -- 35
+ -- 555
- -- 498
* -- 1825
:= -- 3930
add.period$ -- 172
call.type$ -- 54
change.case$ -- 411
chr.to.int$ -- 0
cite$ -- 54
duplicate$ -- 959
empty$ -- 1822
format.name$ -- 498
if$ -- 5402
int.to.chr$ -- 0
int.to.str$ -- 54
missing$ -- 53
newline$ -- 272
num.names$ -- 108
pop$ -- 491
preamble$ -- 1
purify$ -- 357
quote$ -- 0
skip$ -- 749
stack$ -- 0
substring$ -- 1522
swap$ -- 358
text.length$ -- 35
text.prefix$ -- 0
top$ -- 0
type$ -- 216
warning$ -- 0
while$ -- 237
width$ -- 56
write$ -- 601
(There was 1 error message)
